Id	Viagem_Id	HorarioItem_Id	DataHoraEmbarque	Ativo	created_at	updated_at	deleted_at
1	4	1	24/01/2014 19:00:00	1			
2	4	2	24/01/2014 22:00:00	1			
3	4	3	24/01/2014 23:00:00	1			
4	4	4	25/01/2014 01:00:00	1			
5	4	5	25/01/2014 03:00:00	1			